module gitlab.com/ginfra/ginfra

go 1.23.0

require (
	github.com/avast/retry-go/v4 v4.6.0
	github.com/deepmap/oapi-codegen/v2 v2.1.0
	github.com/docker/docker v27.1.2+incompatible
	github.com/docker/go-connections v0.5.0
	github.com/getkin/kin-openapi v0.122.0
	github.com/goccy/go-yaml v1.11.0
	github.com/google/go-cmp v0.6.0
	github.com/labstack/echo/v4 v4.11.4
	github.com/oapi-codegen/echo-middleware v1.0.1
	github.com/oapi-codegen/runtime v1.1.1
	github.com/spf13/cobra v1.8.1
	github.com/stretchr/testify v1.9.0
	go.opentelemetry.io/otel v1.28.0
	go.opentelemetry.io/otel/exporters/otlp/otlpmetric/otlpmetricgrpc v1.27.0
	go.opentelemetry.io/otel/exporters/otlp/otlptrace v1.26.0
	go.opentelemetry.io/otel/exporters/otlp/otlptrace/otlptracegrpc v1.26.0
	go.opentelemetry.io/otel/exporters/stdout/stdoutmetric v1.27.0
	go.opentelemetry.io/otel/exporters/stdout/stdouttrace v1.26.0
	go.opentelemetry.io/otel/metric v1.28.0
	go.opentelemetry.io/otel/sdk v1.27.0
	go.opentelemetry.io/otel/sdk/metric v1.27.0
	go.opentelemetry.io/otel/trace v1.28.0
	go.uber.org/zap v1.25.0
	golang.org/x/mod v0.20.0
	google.golang.org/grpc v1.65.0
	gopkg.in/natefinch/lumberjack.v2 v2.2.1
	gopkg.in/yaml.v3 v3.0.1
	k8s.io/api v0.31.0
	k8s.io/apimachinery v0.31.0
	k8s.io/client-go v0.31.0
)

require (
	github.com/Azure/go-ansiterm v0.0.0-20230124172434-306776ec8161 // indirect
	github.com/Microsoft/go-winio v0.6.2 // indirect
	github.com/apapsch/go-jsonmerge/v2 v2.0.0 // indirect
	github.com/cenkalti/backoff/v4 v4.3.0 // indirect
	github.com/containerd/log v0.1.0 // indirect
	github.com/davecgh/go-spew v1.1.2-0.20180830191138-d8f796af33cc // indirect
	github.com/distribution/reference v0.6.0 // indirect
	github.com/docker/go-units v0.5.0 // indirect
	github.com/emicklei/go-restful/v3 v3.11.0 // indirect
	github.com/fatih/color v1.17.0 // indirect
	github.com/felixge/httpsnoop v1.0.4 // indirect
	github.com/fxamacker/cbor/v2 v2.7.0 // indirect
	github.com/go-logr/logr v1.4.2 // indirect
	github.com/go-logr/stdr v1.2.2 // indirect
	github.com/go-openapi/jsonpointer v0.19.6 // indirect
	github.com/go-openapi/jsonreference v0.20.2 // indirect
	github.com/go-openapi/swag v0.22.4 // indirect
	github.com/gogo/protobuf v1.3.2 // indirect
	github.com/golang-jwt/jwt v3.2.2+incompatible // indirect
	github.com/golang/protobuf v1.5.4 // indirect
	github.com/google/gnostic-models v0.6.8 // indirect
	github.com/google/gofuzz v1.2.0 // indirect
	github.com/google/uuid v1.6.0 // indirect
	github.com/gorilla/mux v1.8.1 // indirect
	github.com/grpc-ecosystem/grpc-gateway/v2 v2.20.0 // indirect
	github.com/imdario/mergo v0.3.13 // indirect
	github.com/inconshreveable/mousetrap v1.1.0 // indirect
	github.com/invopop/yaml v0.2.0 // indirect
	github.com/josharian/intern v1.0.0 // indirect
	github.com/json-iterator/go v1.1.12 // indirect
	github.com/labstack/gommon v0.4.2 // indirect
	github.com/mailru/easyjson v0.7.7 // indirect
	github.com/mattn/go-colorable v0.1.13 // indirect
	github.com/mattn/go-isatty v0.0.20 // indirect
	github.com/moby/docker-image-spec v1.3.1 // indirect
	github.com/moby/term v0.5.0 // indirect
	github.com/modern-go/concurrent v0.0.0-20180306012644-bacd9c7ef1dd // indirect
	github.com/modern-go/reflect2 v1.0.2 // indirect
	github.com/mohae/deepcopy v0.0.0-20170929034955-c48cc78d4826 // indirect
	github.com/morikuni/aec v1.0.0 // indirect
	github.com/munnerz/goautoneg v0.0.0-20191010083416-a7dc8b61c822 // indirect
	github.com/onsi/gomega v1.33.1 // indirect
	github.com/opencontainers/go-digest v1.0.0 // indirect
	github.com/opencontainers/image-spec v1.1.0 // indirect
	github.com/perimeterx/marshmallow v1.1.5 // indirect
	github.com/pkg/errors v0.9.1 // indirect
	github.com/pmezard/go-difflib v1.0.1-0.20181226105442-5d4384ee4fb2 // indirect
	github.com/spf13/pflag v1.0.5 // indirect
	github.com/valyala/bytebufferpool v1.0.0 // indirect
	github.com/valyala/fasttemplate v1.2.2 // indirect
	github.com/x448/float16 v0.8.4 // indirect
	go.opentelemetry.io/contrib/instrumentation/net/http/otelhttp v0.53.0 // indirect
	go.opentelemetry.io/otel/exporters/otlp/otlptrace/otlptracehttp v1.26.0 // indirect
	go.opentelemetry.io/proto/otlp v1.2.0 // indirect
	go.uber.org/multierr v1.10.0 // indirect
	golang.org/x/crypto v0.26.0 // indirect
	golang.org/x/net v0.28.0 // indirect
	golang.org/x/oauth2 v0.21.0 // indirect
	golang.org/x/sync v0.8.0 // indirect
	golang.org/x/sys v0.24.0 // indirect
	golang.org/x/term v0.23.0 // indirect
	golang.org/x/text v0.17.0 // indirect
	golang.org/x/time v0.5.0 // indirect
	golang.org/x/tools v0.23.0 // indirect
	golang.org/x/xerrors v0.0.0-20220907171357-04be3eba64a2 // indirect
	google.golang.org/genproto/googleapis/api v0.0.0-20240528184218-531527333157 // indirect
	google.golang.org/genproto/googleapis/rpc v0.0.0-20240805194559-2c9e96a0b5d4 // indirect
	google.golang.org/protobuf v1.34.2 // indirect
	gopkg.in/inf.v0 v0.9.1 // indirect
	gopkg.in/yaml.v2 v2.4.0 // indirect
	gotest.tools/v3 v3.5.1 // indirect
	k8s.io/klog/v2 v2.130.1 // indirect
	k8s.io/kube-openapi v0.0.0-20240228011516-70dd3763d340 // indirect
	k8s.io/utils v0.0.0-20240711033017-18e509b52bc8 // indirect
	sigs.k8s.io/json v0.0.0-20221116044647-bc3834ca7abd // indirect
	sigs.k8s.io/structured-merge-diff/v4 v4.4.1 // indirect
	sigs.k8s.io/yaml v1.4.0 // indirect
)
