module <<<Module>>>

go 1.23.0

require (
	github.com/brpaz/echozap v1.1.3
	github.com/getkin/kin-openapi v0.122.0
	github.com/labstack/echo/v4 v4.11.4
	github.com/oapi-codegen/runtime v1.1.1
	github.com/spf13/cobra v1.8.1
	gitlab.com/ginfra/ginfra v0.3.0
	go.uber.org/zap v1.25.0
)

require (
	github.com/cenkalti/backoff/v4 v4.3.0 // indirect
	github.com/go-logr/logr v1.4.2 // indirect
	github.com/go-logr/stdr v1.2.2 // indirect
	github.com/grpc-ecosystem/grpc-gateway/v2 v2.20.0 // indirect
	github.com/oapi-codegen/echo-middleware v1.0.1 // indirect
	go.opentelemetry.io/otel v1.28.0 // indirect
	go.opentelemetry.io/otel/exporters/otlp/otlpmetric/otlpmetricgrpc v1.27.0 // indirect
	go.opentelemetry.io/otel/exporters/otlp/otlptrace v1.26.0 // indirect
	go.opentelemetry.io/otel/exporters/otlp/otlptrace/otlptracegrpc v1.26.0 // indirect
	go.opentelemetry.io/otel/exporters/stdout/stdoutmetric v1.27.0 // indirect
	go.opentelemetry.io/otel/exporters/stdout/stdouttrace v1.26.0 // indirect
	go.opentelemetry.io/otel/metric v1.28.0 // indirect
	go.opentelemetry.io/otel/sdk v1.27.0 // indirect
	go.opentelemetry.io/otel/sdk/metric v1.27.0 // indirect
	go.opentelemetry.io/otel/trace v1.28.0 // indirect
	go.opentelemetry.io/proto/otlp v1.2.0 // indirect
	golang.org/x/mod v0.20.0 // indirect
	google.golang.org/genproto/googleapis/api v0.0.0-20240528184218-531527333157 // indirect
	google.golang.org/genproto/googleapis/rpc v0.0.0-20240805194559-2c9e96a0b5d4 // indirect
	google.golang.org/grpc v1.65.0 // indirect
	google.golang.org/protobuf v1.34.2 // indirect
)

// For development time.  This is for when you are working on ginfra at the same time.  You will need to build
// ginfra at least once on the machine before this works.
replace gitlab.com/ginfra/ginfra v0.3.0 => ../../../ginfra

require (
	github.com/apapsch/go-jsonmerge/v2 v2.0.0 // indirect
	github.com/go-openapi/jsonpointer v0.20.0 // indirect
	github.com/go-openapi/swag v0.22.4 // indirect
	github.com/golang-jwt/jwt v3.2.2+incompatible // indirect
	github.com/google/uuid v1.6.0 // indirect
	github.com/gorilla/mux v1.8.1 // indirect
	github.com/inconshreveable/mousetrap v1.1.0 // indirect
	github.com/invopop/yaml v0.2.0 // indirect
	github.com/josharian/intern v1.0.0 // indirect; indirec
	github.com/labstack/gommon v0.4.2 // indirect
	github.com/mailru/easyjson v0.7.7 // indirect
	github.com/mattn/go-colorable v0.1.13 // indirect
	github.com/mattn/go-isatty v0.0.20 // indirect
	github.com/mohae/deepcopy v0.0.0-20170929034955-c48cc78d4826 // indirect
	github.com/perimeterx/marshmallow v1.1.5 // indirect
	github.com/spf13/pflag v1.0.5 // indirect
	github.com/valyala/bytebufferpool v1.0.0 // indirect
	github.com/valyala/fasttemplate v1.2.2 // indirect
	go.uber.org/multierr v1.11.0 // indirect
	golang.org/x/crypto v0.26.0 // indirect
	golang.org/x/net v0.28.0 // indirect
	golang.org/x/sys v0.24.0 // indirect
	golang.org/x/text v0.17.0 // indirect
	golang.org/x/time v0.5.0 // indirect
	gopkg.in/natefinch/lumberjack.v2 v2.2.1 // indirect
	gopkg.in/yaml.v3 v3.0.1 // indirect
)
