{
   "meta": {
      "version": 1,
      "name": "<<<ServiceName>>>",
      "type": "<<<ServiceType>>>",
      "module_name": "<<<Module>>>",
      "serviceclass": "<<<ServiceClass>>>",
      "invocationcmd": ""
   }
}